<?xml version="1.0" encoding="utf-8"?>
<svg width="150px" height="58px" viewBox="0 0 150 58" version="1.1" xmlns="http://www.w3.org/2000/svg" xmlns:bx="https://boxy-svg.com">
  <defs>
    <radialGradient gradientUnits="userSpaceOnUse" cx="75.019" cy="12.445" r="74.805" id="gradient-0">
      <stop offset="0" style="stop-color: rgba(165, 37, 11, 1)"/>
      <stop offset="1" style="stop-color: rgba(69, 15, 5, 1)"/>
    </radialGradient>
    <radialGradient gradientUnits="userSpaceOnUse" cx="75.427" cy="45.277" r="43.306" id="gradient-1">
      <stop offset="0" style="stop-color: rgba(165, 37, 11, 1)"/>
      <stop offset="1" style="stop-color: rgba(69, 15, 5, 1)"/>
    </radialGradient>
  </defs>
  <path d="M 20.182 15.564 L 4.723 15.564 C 4.142 15.564 3.578 15.455 3.033 15.235 C 2.494 15.016 2.009 14.688 1.577 14.251 C 1.152 13.813 0.814 13.277 0.564 12.641 C 0.312 12.006 0.196 11.272 0.216 10.438 L 0.216 5.98 C 0.216 4.574 0.35 3.48 0.619 2.696 C 0.895 1.906 1.308 1.323 1.858 0.949 C 2.41 0.582 3.115 0.353 3.972 0.26 C 4.824 0.176 5.831 0.134 6.996 0.134 L 22.05 0.134 C 22.613 0.134 23.271 0.152 24.023 0.186 C 24.781 0.215 25.494 0.398 26.163 0.737 C 26.833 1.076 27.403 1.641 27.873 2.432 C 28.336 3.222 28.568 4.383 28.568 5.916 L 28.568 8.574 L 20.247 8.574 C 20.247 8.024 20.241 7.579 20.228 7.24 C 20.216 6.901 20.165 6.64 20.077 6.456 C 19.992 6.266 19.855 6.138 19.674 6.075 C 19.493 6.011 19.226 5.98 18.876 5.98 L 9.964 5.98 C 9.694 5.98 9.466 5.993 9.278 6.022 C 9.097 6.057 8.952 6.135 8.847 6.255 C 8.74 6.374 8.662 6.565 8.612 6.827 C 8.562 7.095 8.537 7.459 8.537 7.918 L 8.537 9.262 L 24.059 9.262 C 24.642 9.262 25.203 9.411 25.741 9.707 C 26.286 10.004 26.771 10.407 27.196 10.915 C 27.629 11.431 27.97 12.037 28.22 12.737 C 28.471 13.443 28.586 14.209 28.568 15.035 L 28.568 18.847 C 28.568 20.245 28.433 21.339 28.164 22.13 C 27.888 22.922 27.469 23.5 26.906 23.868 C 26.348 24.241 25.637 24.471 24.773 24.556 C 23.91 24.648 22.895 24.694 21.731 24.694 L 6.733 24.694 C 6.171 24.694 5.51 24.675 4.752 24.64 C 3.994 24.612 3.279 24.425 2.61 24.079 C 1.941 23.74 1.374 23.179 0.91 22.396 C 0.448 21.604 0.216 20.443 0.216 18.911 L 0.216 16.252 L 8.537 16.252 C 8.537 16.824 8.552 17.28 8.584 17.619 C 8.614 17.957 8.674 18.219 8.762 18.402 C 8.844 18.586 8.977 18.707 9.165 18.762 C 9.347 18.819 9.605 18.847 9.936 18.847 L 18.905 18.847 C 19.174 18.847 19.392 18.829 19.561 18.795 C 19.724 18.765 19.85 18.685 19.937 18.55 C 20.025 18.424 20.088 18.233 20.125 17.979 C 20.162 17.724 20.182 17.367 20.182 16.909 L 20.182 15.564 Z M 30.634 24.757 L 30.634 5.916 C 30.634 4.383 30.868 3.222 31.338 2.432 C 31.802 1.641 32.369 1.076 33.038 0.737 C 33.708 0.398 34.422 0.215 35.179 0.186 C 35.937 0.152 36.594 0.134 37.152 0.134 L 52.205 0.134 C 53.37 0.134 54.381 0.176 55.239 0.26 C 56.09 0.353 56.792 0.582 57.342 0.949 C 57.899 1.323 58.313 1.906 58.581 2.696 C 58.852 3.48 58.985 4.574 58.985 5.98 L 58.985 13.563 C 59.01 14.396 58.895 15.13 58.639 15.766 C 58.389 16.401 58.05 16.938 57.624 17.375 C 57.198 17.812 56.712 18.141 56.168 18.36 C 55.623 18.572 55.061 18.678 54.477 18.678 L 39.02 18.678 L 39.02 24.757 L 30.634 24.757 Z M 39.02 7.918 L 39.02 12.377 L 50.665 12.377 L 50.665 7.918 C 50.665 7.459 50.646 7.095 50.608 6.827 C 50.572 6.565 50.502 6.374 50.402 6.255 C 50.302 6.135 50.167 6.057 49.999 6.022 C 49.823 5.993 49.598 5.98 49.322 5.98 L 40.42 5.98 C 40.107 5.98 39.859 6.001 39.677 6.043 C 39.49 6.085 39.349 6.173 39.255 6.308 C 39.155 6.435 39.093 6.626 39.067 6.88 C 39.036 7.134 39.02 7.48 39.02 7.918 Z M 81.089 24.757 L 81.089 18.678 L 69.443 18.678 L 69.443 24.757 L 61.058 24.757 L 61.058 5.916 C 61.058 4.383 61.289 3.222 61.751 2.432 C 62.222 1.641 62.792 1.076 63.462 0.737 C 64.131 0.398 64.845 0.215 65.603 0.186 C 66.361 0.152 67.018 0.134 67.575 0.134 L 82.628 0.134 C 83.794 0.134 84.8 0.176 85.652 0.26 C 86.509 0.353 87.214 0.582 87.766 0.949 C 88.322 1.323 88.736 1.906 89.006 2.696 C 89.275 3.48 89.409 4.574 89.409 5.98 L 89.409 24.757 L 81.089 24.757 Z M 69.443 7.918 L 69.443 12.377 L 81.089 12.377 L 81.089 7.918 C 81.089 7.459 81.07 7.095 81.032 6.827 C 80.988 6.565 80.919 6.374 80.825 6.255 C 80.724 6.135 80.59 6.057 80.422 6.022 C 80.247 5.993 80.02 5.98 79.746 5.98 L 70.842 5.98 C 70.53 5.98 70.282 6.001 70.101 6.043 C 69.913 6.085 69.772 6.173 69.678 6.308 C 69.578 6.435 69.512 6.626 69.482 6.88 C 69.456 7.134 69.443 7.48 69.443 7.918 Z M 99.692 7.918 L 99.692 16.973 C 99.692 17.431 99.714 17.795 99.758 18.064 C 99.808 18.325 99.887 18.516 99.992 18.636 C 100.1 18.755 100.247 18.833 100.434 18.869 C 100.617 18.897 100.844 18.911 101.119 18.911 L 110.022 18.911 C 110.642 18.911 111.027 18.681 111.177 18.222 C 111.322 17.764 111.393 17.128 111.393 16.316 L 119.715 16.316 L 119.715 18.974 C 119.715 20.507 119.483 21.668 119.019 22.458 C 118.557 23.25 117.99 23.814 117.319 24.153 C 116.65 24.492 115.936 24.675 115.178 24.704 C 114.421 24.739 113.761 24.757 113.197 24.757 L 98.142 24.757 C 96.979 24.757 95.971 24.714 95.118 24.63 C 94.267 24.538 93.564 24.304 93.006 23.93 C 92.456 23.563 92.042 22.985 91.767 22.194 C 91.497 21.41 91.362 20.316 91.362 18.911 L 91.362 5.98 C 91.362 4.574 91.497 3.48 91.767 2.696 C 92.042 1.906 92.456 1.323 93.006 0.949 C 93.564 0.582 94.267 0.353 95.118 0.26 C 95.971 0.176 96.979 0.134 98.142 0.134 L 113.197 0.134 C 113.761 0.134 114.421 0.152 115.178 0.186 C 115.936 0.215 116.65 0.398 117.319 0.737 C 117.99 1.076 118.557 1.641 119.019 2.432 C 119.483 3.222 119.715 4.383 119.715 5.916 L 119.715 8.574 L 111.393 8.574 C 111.393 7.762 111.322 7.126 111.177 6.668 C 111.027 6.209 110.642 5.98 110.022 5.98 L 101.119 5.98 C 100.844 5.98 100.617 5.993 100.434 6.022 C 100.247 6.057 100.1 6.135 99.992 6.255 C 99.887 6.374 99.808 6.565 99.758 6.827 C 99.714 7.095 99.692 7.459 99.692 7.918 Z M 141.842 10.015 L 141.842 14.908 L 130.14 14.908 L 130.14 17.036 C 130.14 17.474 130.14 17.816 130.14 18.064 C 130.14 18.304 130.155 18.488 130.187 18.614 C 130.211 18.749 130.268 18.833 130.356 18.869 C 130.444 18.897 130.575 18.911 130.751 18.911 L 141.287 18.911 C 141.424 18.911 141.532 18.897 141.607 18.869 C 141.687 18.833 141.741 18.749 141.767 18.614 C 141.798 18.488 141.819 18.304 141.832 18.064 C 141.838 17.816 141.842 17.474 141.842 17.036 L 149.824 17.036 C 149.78 18.131 149.771 19.152 149.797 20.097 C 149.815 21.036 149.758 21.852 149.627 22.544 C 149.501 23.229 149.252 23.769 148.875 24.164 C 148.494 24.559 147.886 24.757 147.054 24.757 L 123.679 24.757 C 123.228 24.757 122.876 24.746 122.627 24.725 C 122.377 24.704 122.192 24.643 122.073 24.545 C 121.961 24.446 121.889 24.287 121.857 24.068 C 121.826 23.849 121.81 23.532 121.81 23.115 L 121.81 1.775 C 121.81 1.359 121.826 1.041 121.857 0.822 C 121.889 0.603 121.961 0.444 122.073 0.345 C 122.192 0.247 122.377 0.186 122.627 0.165 C 122.876 0.144 123.228 0.134 123.679 0.134 L 147.054 0.134 C 147.886 0.134 148.494 0.331 148.875 0.727 C 149.252 1.122 149.501 1.662 149.627 2.347 C 149.758 3.039 149.815 3.854 149.797 4.794 C 149.771 5.733 149.78 6.752 149.824 7.854 L 141.842 7.854 C 141.842 7.438 141.838 7.102 141.832 6.848 C 141.819 6.594 141.798 6.404 141.767 6.276 C 141.741 6.142 141.687 6.057 141.607 6.022 C 141.532 5.993 141.424 5.98 141.287 5.98 L 130.751 5.98 C 130.575 5.98 130.444 5.993 130.356 6.022 C 130.268 6.057 130.211 6.142 130.187 6.276 C 130.155 6.404 130.14 6.594 130.14 6.848 C 130.14 7.102 130.14 7.438 130.14 7.854 L 130.14 10.015 L 141.842 10.015 Z" style="white-space: pre; fill: url(#gradient-0);"/>
  <path d="M 32.121 55.947 L 32.121 34.606 C 32.121 34.19 32.134 33.872 32.159 33.653 C 32.19 33.433 32.266 33.275 32.383 33.177 C 32.497 33.077 32.682 33.018 32.939 32.996 C 33.189 32.975 33.536 32.965 33.981 32.965 L 38.582 32.965 C 39.028 32.965 39.378 32.975 39.635 32.996 C 39.885 33.018 40.07 33.077 40.188 33.177 C 40.301 33.275 40.373 33.433 40.404 33.653 C 40.429 33.872 40.442 34.19 40.442 34.606 L 40.442 42.877 L 49.588 42.877 L 49.588 34.606 C 49.588 34.19 49.602 33.872 49.626 33.653 C 49.657 33.433 49.733 33.275 49.851 33.177 C 49.965 33.077 50.15 33.018 50.406 32.996 C 50.656 32.975 51.004 32.965 51.449 32.965 L 56.049 32.965 C 56.495 32.965 56.846 32.975 57.102 32.996 C 57.352 33.018 57.533 33.077 57.646 33.177 C 57.766 33.275 57.84 33.433 57.871 33.653 C 57.896 33.872 57.91 34.19 57.91 34.606 L 57.91 55.947 C 57.91 56.362 57.896 56.681 57.871 56.9 C 57.84 57.119 57.766 57.278 57.646 57.376 C 57.533 57.474 57.352 57.535 57.102 57.557 C 56.846 57.577 56.495 57.588 56.049 57.588 L 51.449 57.588 C 51.004 57.588 50.656 57.577 50.406 57.557 C 50.15 57.535 49.965 57.474 49.851 57.376 C 49.733 57.278 49.657 57.119 49.626 56.9 C 49.602 56.681 49.588 56.362 49.588 55.947 L 49.588 48.787 L 40.442 48.787 L 40.442 55.947 C 40.442 56.362 40.429 56.681 40.404 56.9 C 40.373 57.119 40.301 57.278 40.188 57.376 C 40.07 57.474 39.885 57.535 39.635 57.557 C 39.378 57.577 39.028 57.588 38.582 57.588 L 33.981 57.588 C 33.536 57.588 33.189 57.577 32.939 57.557 C 32.682 57.535 32.497 57.474 32.383 57.376 C 32.266 57.278 32.19 57.119 32.159 56.9 C 32.134 56.681 32.121 56.362 32.121 55.947 Z M 88.571 38.747 L 88.571 51.742 C 88.571 53.148 88.434 54.242 88.158 55.025 C 87.889 55.816 87.472 56.395 86.909 56.762 C 86.346 57.136 85.631 57.369 84.768 57.461 C 83.903 57.545 82.89 57.588 81.724 57.588 L 66.737 57.588 C 66.173 57.588 65.513 57.57 64.756 57.535 C 63.998 57.507 63.284 57.323 62.615 56.984 C 61.944 56.645 61.377 56.081 60.915 55.29 C 60.444 54.499 60.21 53.338 60.21 51.806 L 60.21 38.81 C 60.21 37.405 60.348 36.311 60.623 35.528 C 60.893 34.736 61.302 34.154 61.854 33.78 C 62.41 33.413 63.114 33.184 63.967 33.092 C 64.824 33.007 65.835 32.965 67 32.965 L 82.045 32.965 C 82.609 32.965 83.267 32.982 84.026 33.018 C 84.784 33.046 85.498 33.23 86.167 33.568 C 86.836 33.907 87.404 34.471 87.867 35.263 C 88.337 36.054 88.571 37.215 88.571 38.747 Z M 68.539 40.749 L 68.539 49.147 C 68.539 49.719 68.556 50.174 68.587 50.513 C 68.612 50.853 68.669 51.114 68.756 51.297 C 68.843 51.487 68.982 51.608 69.169 51.658 C 69.35 51.713 69.608 51.742 69.939 51.742 L 78.908 51.742 C 79.177 51.742 79.394 51.72 79.556 51.679 C 79.726 51.636 79.854 51.544 79.941 51.403 C 80.022 51.262 80.084 51.065 80.129 50.81 C 80.166 50.556 80.185 50.22 80.185 49.803 L 80.185 41.405 C 80.185 40.855 80.178 40.407 80.166 40.06 C 80.16 39.707 80.123 39.443 80.054 39.266 C 79.985 39.089 79.859 38.969 79.678 38.906 C 79.49 38.843 79.22 38.81 78.87 38.81 L 69.967 38.81 C 69.692 38.81 69.463 38.824 69.281 38.853 C 69.095 38.888 68.946 38.966 68.84 39.086 C 68.734 39.206 68.659 39.396 68.615 39.658 C 68.565 39.925 68.539 40.29 68.539 40.749 Z M 98.702 40.749 L 98.702 49.084 C 98.702 49.655 98.714 50.111 98.739 50.45 C 98.771 50.789 98.83 51.05 98.918 51.234 C 99.007 51.416 99.14 51.538 99.321 51.594 C 99.509 51.649 99.767 51.679 100.09 51.679 L 109.059 51.679 C 109.336 51.679 109.555 51.658 109.717 51.615 C 109.881 51.572 110.006 51.477 110.093 51.329 C 110.181 51.188 110.242 50.994 110.281 50.746 C 110.325 50.492 110.347 50.156 110.347 49.741 L 110.347 49.052 L 99.452 49.052 L 99.452 43.407 L 114.216 43.407 C 115.092 43.407 115.816 43.499 116.385 43.682 C 116.955 43.866 117.415 44.173 117.766 44.604 C 118.116 45.028 118.364 45.602 118.508 46.33 C 118.658 47.05 118.733 47.947 118.733 49.02 L 118.733 51.679 C 118.733 53.077 118.595 54.171 118.32 54.961 C 118.051 55.752 117.634 56.331 117.071 56.698 C 116.507 57.072 115.794 57.302 114.929 57.386 C 114.066 57.479 113.051 57.524 111.887 57.524 L 96.898 57.524 C 96.336 57.524 95.675 57.507 94.917 57.471 C 94.16 57.443 93.446 57.257 92.775 56.91 C 92.106 56.571 91.539 56.01 91.075 55.226 C 90.607 54.435 90.372 53.274 90.372 51.742 L 90.372 38.81 C 90.372 37.405 90.51 36.311 90.784 35.528 C 91.053 34.736 91.465 34.154 92.015 33.78 C 92.573 33.413 93.277 33.184 94.128 33.092 C 94.98 33.007 95.987 32.965 97.152 32.965 L 112.205 32.965 C 112.769 32.965 113.431 32.982 114.188 33.018 C 114.946 33.046 115.659 33.23 116.329 33.568 C 116.999 33.907 117.566 34.471 118.028 35.263 C 118.498 36.054 118.733 37.215 118.733 38.747 L 118.733 41.405 L 110.403 41.405 C 110.403 40.897 110.398 40.481 110.384 40.156 C 110.378 39.824 110.331 39.562 110.242 39.372 C 110.157 39.174 110.018 39.03 109.83 38.938 C 109.649 38.853 109.383 38.81 109.032 38.81 L 100.129 38.81 C 99.854 38.81 99.626 38.824 99.443 38.853 C 99.256 38.888 99.109 38.966 99.002 39.086 C 98.896 39.206 98.819 39.396 98.767 39.658 C 98.724 39.925 98.702 40.29 98.702 40.749 Z" style="white-space: pre; fill: url(#gradient-1);"/>
</svg>
